{
    "current_page": 1,
    "data": [
        {
            "id": 1,
            "name": "Ut nulla ea.",
            "is_archived": 0,
            "created_at": "2024-04-26T03:40:30.000000Z",
            "updated_at": "2024-04-26T03:40:30.000000Z"
        },
        {
            "id": 2,
            "name": "Impedit nulla.",
            "is_archived": 0,
            "created_at": "2024-04-26T03:40:30.000000Z",
            "updated_at": "2024-04-26T03:40:30.000000Z"
        },
        {
            "id": 3,
            "name": "Id nemo in.",
            "is_archived": 0,
            "created_at": "2024-04-26T03:40:30.000000Z",
            "updated_at": "2024-04-26T03:40:30.000000Z"
        },
        {
            "id": 4,
            "name": "Ipsum aut quas.",
            "is_archived": 0,
            "created_at": "2024-04-26T03:40:30.000000Z",
            "updated_at": "2024-04-26T03:40:30.000000Z"
        },
        {
            "id": 5,
            "name": "Enim nam sint ratione.",
            "is_archived": 0,
            "created_at": "2024-04-26T03:40:30.000000Z",
            "updated_at": "2024-04-26T03:40:30.000000Z"
        },
        {
            "id": 6,
            "name": "Fuga quis.",
            "is_archived": 0,
            "created_at": "2024-04-26T03:40:30.000000Z",
            "updated_at": "2024-04-26T03:40:30.000000Z"
        },
        {
            "id": 7,
            "name": "Neque saepe quaerat quae.",
            "is_archived": 0,
            "created_at": "2024-04-26T03:40:30.000000Z",
            "updated_at": "2024-04-26T03:40:30.000000Z"
        },
        {
            "id": 8,
            "name": "Odit.",
            "is_archived": 0,
            "created_at": "2024-04-26T03:40:30.000000Z",
            "updated_at": "2024-04-26T03:40:30.000000Z"
        },
        {
            "id": 9,
            "name": "Sunt magnam ut.",
            "is_archived": 0,
            "created_at": "2024-04-26T03:40:30.000000Z",
            "updated_at": "2024-04-26T03:40:30.000000Z"
        },
        {
            "id": 10,
            "name": "Sunt praesentium et.",
            "is_archived": 0,
            "created_at": "2024-04-26T03:40:30.000000Z",
            "updated_at": "2024-04-26T03:40:30.000000Z"
        }
    ],
    "first_page_url": "http://127.0.0.1:8000/admin/ingredient?page=1",
    "from": 1,
    "last_page": 2,
    "last_page_url": "http://127.0.0.1:8000/admin/ingredient?page=2",
    "links": [
        {
            "url": null,
            "label": "&laquo; Previous",
            "active": false
        },
        {
            "url": "http://127.0.0.1:8000/admin/ingredient?page=1",
            "label": "1",
            "active": true
        },
        {
            "url": "http://127.0.0.1:8000/admin/ingredient?page=2",
            "label": "2",
            "active": false
        },
        {
            "url": "http://127.0.0.1:8000/admin/ingredient?page=2",
            "label": "Next &raquo;",
            "active": false
        }
    ],
    "next_page_url": "http://127.0.0.1:8000/admin/ingredient?page=2",
    "path": "http://127.0.0.1:8000/admin/ingredient",
    "per_page": 10,
    "prev_page_url": null,
    "to": 10,
    "total": 20
}
